%YAML 1.1
%TAG !u! tag:unity3d.com,2011:
--- !u!78 &1
TagManager:
  serializedVersion: 2
  tags:
  - LetterSpawnZone
  - MainGame
  - LetterA
  - LetterB
  - LetterC
  - Letter
  - Bullet
  - LetterSpawn
  - BulletPreview
  - CWSpawn
  - LetterD
  - LetterE
  - LetterF
  - LetterG
  - LetterH
  - LetterI
  - LetterJ
  - LetterK
  - LetterL
  - LetterM
  - LetterN
  - LetterO
  - LetterP
  - LetterQ
  - LetterR
  - LetterS
  - LetterT
  - LetterU
  - LetterV
  - LetterW
  - LetterX
  - LetterY
  - LetterZ
  layers:
  - Default
  - TransparentFX
  - Ignore Raycast
  - Preview
  - Water
  - UI
  - 
  - 
  - 
  - 
  - 
  - 
  - 
  - 
  - 
  - 
  - 
  - 
  - 
  - 
  - 
  - 
  - 
  - 
  - 
  - 
  - 
  - 
  - 
  - 
  - 
  - 
  m_SortingLayers:
  - name: Default
    uniqueID: 0
    locked: 0
