%YAML 1.1
%TAG !u! tag:unity3d.com,2011:
--- !u!162 &1
EditorUserSettings:
  m_ObjectHideFlags: 0
  serializedVersion: 4
  m_ConfigSettings:
    RecentlyUsedScenePath-0:
      value: 22424703114646680e0b0227036c7a11050e342f3a2d2a7e38271427fb
      flags: 0
    RecentlyUsedScenePath-1:
      value: 224247031146466b1f0b0a23123010231512162f3f6716353f241c3de7ee2017e0ed33eaf3093c393707a1290a371526
      flags: 0
    RecentlyUsedScenePath-2:
      value: 224247031146466b1f0b0a23123010231512162f3f670b3124273a32efe57a2decee22f0
      flags: 0
    RecentlyUsedScenePath-3:
      value: 224247031146466b1f0b0a23123010231512162f3f670b3124273036ecf57a2decee22f0
      flags: 0
    RecentlyUsedScenePath-4:
      value: 224247031146467e151a09301e22533105041d3e3f670d2523281107e3ee3037eca812e6f32e3a38150be1394b1a0432fd450d04e21f0f0f5c02f40014b214161cca56d014c10b05
      flags: 0
    RecentlyUsedScenePath-5:
      value: 22424703114646680e0b0227036c72111f193f2b212d6661633c133af6f9
      flags: 0
    RecentlyUsedScenePath-6:
      value: 22424703114646680e0b0227036c6f15041a19242926321f2f231830f6d3373dece278fce9332b25
      flags: 0
    RecentlyUsedScenePath-7:
      value: 22424703114646680e0b0227036c72111f193f2b212d68252320092a
      flags: 0
    RecentlyUsedScenePath-8:
      value: 22424703114646680e0b0227036c72111f19352f223d68252320092a
      flags: 0
    vcSharedLogLevel:
      value: 0d5e400f0650
      flags: 0
  m_VCAutomaticAdd: 1
  m_VCDebugCom: 0
  m_VCDebugCmd: 0
  m_VCDebugOut: 0
  m_SemanticMergeMode: 2
  m_VCShowFailedCheckout: 1
  m_VCOverwriteFailedCheckoutAssets: 1
  m_VCProjectOverlayIcons: 1
  m_VCHierarchyOverlayIcons: 1
  m_VCOtherOverlayIcons: 1
  m_VCAllowAsyncUpdate: 0
